trace_file.vcd
$date
     Jan 15, 2019       12:42:14
$end

$version
              SystemC 2.3.0-ASI --- Sep 10 2012 16:44:06
$end

$timescale
     1 ns
$end

$scope module SystemC $end
$var wire    1  aaa  clk       $end
$var wire    1  aab  enable       $end
$var wire    1  aac  left_data       $end
$var wire    1  aad  right_data       $end
$var wire    1  aae  left_right_signal       $end
$var wire    8  aaf  data_out [7:0]  $end
$upscope $end
$enddefinitions  $end

$comment
All initial values are dumped below at time 0 sec = 0 timescale units.
$end

$dumpvars
1aaa
0aab
0aac
0aad
0aae
b0 aaf
$end

#5
0aaa

#9
1aab
1aac

#10
1aaa
b1 aaf

#15
0aaa

#19
0aac

#20
1aaa
b10 aaf

#25
0aaa

#30
1aaa
b100 aaf

#35
0aaa

#40
1aaa
b1000 aaf

#45
0aaa

#50
1aaa
b10000 aaf

#55
0aaa

#60
1aaa
b100000 aaf

#65
0aaa

#69
1aac
1aae

#70
1aaa
b10000 aaf

#75
0aaa

#79
0aab

#80
1aaa

#85
0aaa

#89
1aab
0aac

#90
1aaa
b1000 aaf

#95
0aaa

#100
1aaa
b100 aaf

#105
0aaa

#110
1aaa
b10 aaf

#115
0aaa

#120
1aaa
b1 aaf

#125
0aaa

#130
1aaa
b0 aaf

